[
	{
		"nombre":"CAFE MOCA 5kg GRANO",
		"codigo":"ABC123",
		"medida":"KG",
		"posicion":[1,1,1],
		"tipo":"GRANO",
		"calidad":"ALTA",
		"tiempoExpiracion":"1",
		"fechaCreado":"2019-01-29",
		"fechaEditado":"2019-01-29",
		"activo":true
	},
	{
		"nombre":"CAFE FAMILIAR 5kg GRANO",
		"codigo":"ABC111",
		"medida":"KG",
		"posicion":[1,1,2],
		"tipo":"GRANO",
		"calidad":"ALTA",
		"tiempoExpiracion":"1",
		"fechaCreado":"2019-01-29",
		"fechaEditado":"2019-01-29",
		"activo":true
	}
]